[
  {
    "Name": "Minsk",
    "Runways": [
      {
        "Name": "blabla",
        "Length": 134
      },
      {
        "Name": "qwerty",
        "Length": 178
      }
    ]
  },
  {
    "Name": "USA",
    "Runways": [
      {
        "Name": "lasdkjf",
        "Length": 198
      },
      {
        "Name": "lasjdlfjsad",
        "Length": 898
      }
    ]
  },
  {
    "Name": "Germany",
    "Runways": []
  },
  {
    "Name": "Russia",
    "Runways": []
  },
  {
    "Name": "Smth",
    "Runways": []
  },
  {
    "Name": "Smne",
    "Runways": []
  }
]